module github.com/radenrishwan/portofolio

go 1.21.1

require (
	entgo.io/ent v0.12.4
	github.com/gofiber/fiber/v2 v2.49.2
	github.com/gofiber/template/html/v2 v2.0.5
)

require (
	ariga.io/atlas v0.14.1-0.20230918065911-83ad451a4935 // indirect
	github.com/agext/levenshtein v1.2.1 // indirect
	github.com/andybalholm/brotli v1.0.5 // indirect
	github.com/apparentlymart/go-textseg/v13 v13.0.0 // indirect
	github.com/go-openapi/inflect v0.19.0 // indirect
	github.com/go-ozzo/ozzo-validation v3.6.0+incompatible // indirect
	github.com/gofiber/template v1.8.2 // indirect
	github.com/gofiber/utils v1.1.0 // indirect
	github.com/google/go-cmp v0.5.6 // indirect
	github.com/google/uuid v1.3.1 // indirect
	github.com/hashicorp/hcl/v2 v2.13.0 // indirect
	github.com/klauspost/compress v1.16.7 // indirect
	github.com/lib/pq v1.10.9 // indirect
	github.com/mattn/go-colorable v0.1.13 // indirect
	github.com/mattn/go-isatty v0.0.19 // indirect
	github.com/mattn/go-runewidth v0.0.15 // indirect
	github.com/mitchellh/go-wordwrap v0.0.0-20150314170334-ad45545899c7 // indirect
	github.com/rivo/uniseg v0.2.0 // indirect
	github.com/valyala/bytebufferpool v1.0.0 // indirect
	github.com/valyala/fasthttp v1.49.0 // indirect
	github.com/valyala/tcplisten v1.0.0 // indirect
	github.com/zclconf/go-cty v1.8.0 // indirect
	golang.org/x/mod v0.10.0 // indirect
	golang.org/x/sys v0.12.0 // indirect
	golang.org/x/text v0.8.0 // indirect
)
